{
  "formatVersion" : "v1.0",
  "disclaimer" : "This pricing list is for informational purposes only. All prices are subject to the additional terms included in the pricing pages on http://aws.amazon.com. All Free Tier prices are also subject to the terms included at https://aws.amazon.com/free/",
  "offerCode" : "AmazonEC2",
  "version" : "20210318223019",
  "publicationDate" : "2021-03-18T22:30:19Z",
  "products" : {
    "SZ472S2RBJNMG88E" : {
      "sku" : "SZ472S2RBJNMG88E",
      "productFamily" : "Compute Instance",
      "attributes" : {
        "servicecode" : "AmazonEC2",
        "location" : "AWS GovCloud (US-West)",
        "locationType" : "AWS Region",
        "instanceType" : "m4.10xlarge",
        "currentGeneration" : "Yes",
        "instanceFamily" : "General purpose",
        "vcpu" : "40",
        "physicalProcessor" : "Intel Xeon E5-2676 v3 (Haswell)",
        "clockSpeed" : "2.4 GHz",
        "memory" : "160 GiB",
        "storage" : "EBS only",
        "networkPerformance" : "10 Gigabit",
        "processorArchitecture" : "64-bit",
        "tenancy" : "Dedicated",
        "operatingSystem" : "RHEL",
        "licenseModel" : "No License required",
        "usagetype" : "UGW1-DedicatedRes:m4.10xlarge",
        "operation" : "RunInstances:0010",
        "capacitystatus" : "AllocatedCapacityReservation",
        "dedicatedEbsThroughput" : "4000 Mbps",
        "ecu" : "124.5",
        "enhancedNetworkingSupported" : "Yes",
        "instancesku" : "ZJXWZ3ZSSF2JFNBS",
        "intelAvxAvailable" : "Yes",
        "intelAvx2Available" : "Yes",
        "intelTurboAvailable" : "Yes",
        "normalizationSizeFactor" : "80",
        "preInstalledSw" : "NA",
        "processorFeatures" : "Intel AVX; Intel AVX2; Intel Turbo",
        "servicename" : "Amazon Elastic Compute Cloud"
      }
    },
    "XA55FCPSHD2ABUC5" : {
      "sku" : "XA55FCPSHD2ABUC5",
      "productFamily" : "Compute Instance",
      "attributes" : {
        "servicecode" : "AmazonEC2",
        "location" : "South America (Sao Paulo)",
        "locationType" : "AWS Region",
        "instanceType" : "i3en.3xlarge",
        "currentGeneration" : "Yes",
        "instanceFamily" : "Storage optimized",
        "vcpu" : "12",
        "physicalProcessor" : "Intel Xeon Platinum 8175 (Skylake)",
        "clockSpeed" : "3.1 GHz",
        "memory" : "96 GiB",
        "storage" : "1 x 7500 NVMe SSD",
        "networkPerformance" : "Up to 25 Gigabit",
        "processorArchitecture" : "64-bit",
        "tenancy" : "Host",
        "operatingSystem" : "SUSE",
        "licenseModel" : "No License required",
        "usagetype" : "SAE1-HostBoxUsage:i3en.3xlarge",
        "operation" : "RunInstances:000g",
        "capacitystatus" : "Used",
        "dedicatedEbsThroughput" : "Up to 3500 Mbps",
        "ecu" : "NA",
        "enhancedNetworkingSupported" : "Yes",
        "intelAvxAvailable" : "Yes",
        "intelAvx2Available" : "Yes",
        "intelTurboAvailable" : "Yes",
        "normalizationSizeFactor" : "24",
        "preInstalledSw" : "NA",
        "processorFeatures" : "Intel AVX; Intel AVX2; Intel AVX512; Intel Turbo",
        "servicename" : "Amazon Elastic Compute Cloud"
      }
    },
    "JF25X344J7WKTCG7" : {
      "sku" : "JF25X344J7WKTCG7",
      "productFamily" : "Compute Instance",
      "attributes" : {
        "servicecode" : "AmazonEC2",
        "location" : "EU (London)",
        "locationType" : "AWS Region",
        "instanceType" : "m4.large",
        "currentGeneration" : "Yes",
        "instanceFamily" : "General purpose",
        "vcpu" : "2",
        "physicalProcessor" : "Intel Xeon E5-2676 v3 (Haswell)",
        "clockSpeed" : "2.4 GHz",
        "memory" : "8 GiB",
        "storage" : "EBS only",
        "networkPerformance" : "Moderate",
        "processorArchitecture" : "64-bit",
        "tenancy" : "Dedicated",
        "operatingSystem" : "Windows",
        "licenseModel" : "No License required",
        "usagetype" : "EUW2-UnusedDed:m4.large",
        "operation" : "RunInstances:0202",
        "capacitystatus" : "UnuseCapacityReservation",
        "dedicatedEbsThroughput" : "450 Mbps",
        "ecu" : "6.5",
        "enhancedNetworkingSupported" : "Yes",
        "instancesku" : "FPPNXJEHX35MRPZJ",
        "intelAvxAvailable" : "Yes",
        "intelAvx2Available" : "Yes",
        "intelTurboAvailable" : "Yes",
        "normalizationSizeFactor" : "4",
        "preInstalledSw" : "SQL Web",
        "processorFeatures" : "Intel AVX; Intel AVX2; Intel Turbo",
        "servicename" : "Amazon Elastic Compute Cloud"
      }
    },
    "8ZXHGFU4QJ2GBPJB" : {
      "sku" : "8ZXHGFU4QJ2GBPJB",
      "productFamily" : "Compute Instance",
      "attributes" : {
        "servicecode" : "AmazonEC2",
        "location" : "AWS GovCloud (US-East)",
        "locationType" : "AWS Region",
        "instanceType" : "c5a.large",
        "currentGeneration" : "Yes",
        "instanceFamily" : "Compute optimized",
        "vcpu" : "2",
        "physicalProcessor" : "AMD EPYC 7R32",
        "clockSpeed" : "2.8 GHz",
        "memory" : "4 GiB",
        "storage" : "EBS only",
        "networkPerformance" : "Up to 10 Gigabit",
        "processorArchitecture" : "32-bit or 64-bit",
        "tenancy" : "Shared",
        "operatingSystem" : "RHEL",
        "licenseModel" : "No License required",
        "usagetype" : "UGE1-Reservation:c5a.large",
        "operation" : "RunInstances:0010",
        "capacitystatus" : "AllocatedCapacityReservation",
        "dedicatedEbsThroughput" : "Up to 3170 Mbps",
        "ecu" : "NA",
        "enhancedNetworkingSupported" : "Yes",
        "instancesku" : "HVF4PSYE4XWP252Q",
        "intelAvxAvailable" : "No",
        "intelAvx2Available" : "No",
        "intelTurboAvailable" : "No",
        "normalizationSizeFactor" : "4",
        "preInstalledSw" : "NA",
        "processorFeatures" : "AMD Turbo; AVX; AVX2",
        "servicename" : "Amazon Elastic Compute Cloud"
      }
    }
  }
}

